1;5;500;1453909814;Hamburg (14400);
3;10;750;1453909814;Duisburg (8650);
2;21;250;1453909814;Bremerhaven (9560.8);Hamburg (445.70);
5;10;750;1453909814;Duisburg (8650);Kiel (10);
6;11;250;1453909814;Bremerhaven (9560.8);Hamburg (445.70);