10;5;400;1453909814;Hamburg(14400);
2;2;750;1453909814;Neapel(7800);
5;9;500;1453909814;Afganistan(4500);Hamburg(7800);
4;0;150;1453909814;Taiwan(7600);
1;9;320;1453909814;Würselen (8670);
§;1;430;1453909814;Israel (11300);Neapel (14600);
18;6;750;1453909814;China (14600);
0;88;100;1453909814;Irak (19400);
3;4;440;1453909814;Texas (13300);
i;6;250;1453909814;Rom (1100);
